…
    ## The following objects are masked from 'package:stats':
    ## 
    ##     filter, lag

    ## The following objects are masked from 'package:base':
    ## 
    ##     intersect, setdiff, setequal, union

``` r
group_by(Age_County_Gender_061,.dots=縣市) %>%
  summarise(病例=sum(確定病例數)) %>%
  arrange(desc(病例))
```

    ## # A tibble: 22 x 2
    ##     .dots  病例
    ##    <fctr> <int>
    ##  1 高雄市 40796
    ##  2 台南市 26406
    ##  3 屏東縣  1762
    ##  4 台北市   701
    ##  5 新北市   633
    ##  6 台中市   449
    ##  7 桃園市   438
    ##  8 彰化縣   159
    ##  9 澎湖縣   137
    ## 10 新竹縣   114
    ## # ... with 12 more rows
…
